…
We use the fake data set `gwl_data_fake` included in this package to
demonstrate the following examples

``` r
gwl_fake_data
#> # A tibble: 3,168 x 4
#>    well_id climate_model_name date         gwl
#>    <chr>   <chr>              <date>     <dbl>
#>  1 1000    climate_model_1    1980-01-15     1
#>  2 1000    climate_model_1    1980-02-15     2
#>  3 1000    climate_model_1    1980-03-15     1
#>  4 1000    climate_model_1    1980-04-15     2
#>  5 1000    climate_model_1    1980-05-15     1
#>  6 1000    climate_model_1    1980-06-15     2
#>  7 1000    climate_model_1    1980-07-15     1
#>  8 1000    climate_model_1    1980-08-15     2
#>  9 1000    climate_model_1    1980-09-15     1
#> 10 1000    climate_model_1    1980-10-15     2
#> # ... with 3,158 more rows
```
…
